<?xml version="1.0" encoding="UTF-8"?>
<svg width="96px" height="32px" viewBox="0 0 96 32" version="1.1" xmlns="http://www.w3.org/2000/svg" xmlns:xlink="http://www.w3.org/1999/xlink">
    <!-- Generator: Sketch 52.5 (67469) - http://www.bohemiancoding.com/sketch -->
    <title>visa</title>
    <desc>Created with Sketch.</desc>
    <g id="Page-1" stroke="none" stroke-width="1" fill="none" fill-rule="evenodd">
        <g id="Payment-icons-/-social" transform="translate(-284.000000, -287.000000)">
            <g id="visa" transform="translate(275.000000, 246.000000)">
                <g id="Group" transform="translate(9.000000, 41.000000)" fill="#2566AF" fill-rule="nonzero">
                    <path d="M41.548,30.8568 L33.7616,30.8568 L38.628,0.9496 L46.4152,0.9496 L41.548,30.8568 Z M27.2112,0.9496 L19.788,21.52 L18.9096,17.0904 L18.9104,17.092 L16.2904,3.6424 C16.2904,3.6424 15.9736,0.9496 12.5968,0.9496 L0.3248,0.9496 L0.1808,1.456 C0.1808,1.456 3.9336,2.2368 8.3256,4.8744 L15.0904,30.8576 L23.2032,30.8576 L35.5912,0.9496 L27.2112,0.9496 Z M88.4552,30.8568 L95.6048,30.8568 L89.3712,0.9488 L83.112,0.9488 C80.2216,0.9488 79.5176,3.1776 79.5176,3.1776 L67.9048,30.8568 L76.0216,30.8568 L77.6448,26.4144 L87.5432,26.4144 L88.4552,30.8568 Z M79.8872,20.2776 L83.9784,9.0856 L86.28,20.2776 L79.8872,20.2776 Z M68.5136,8.1416 L69.6248,1.7192 C69.6248,1.7192 66.196,0.4152 62.6216,0.4152 C58.7576,0.4152 49.5816,2.104 49.5816,10.316 C49.5816,18.0424 60.3512,18.1384 60.3512,22.1968 C60.3512,26.2552 50.6912,25.528 47.5032,22.9688 L46.3456,29.684 C46.3456,29.684 49.8224,31.3728 55.1344,31.3728 C60.448,31.3728 68.464,28.6216 68.464,21.1336 C68.464,13.3576 57.5976,12.6336 57.5976,9.2528 C57.5984,5.8712 65.1816,6.3056 68.5136,8.1416 Z" id="Shape"></path>
                </g>
                <path d="M28,58 L25.342175,44.6690455 C25.342175,44.6690455 25.0208013,42 21.5952503,42 L9.14607893,42 L9,42.5019328 C9,42.5019328 14.9835554,43.7135494 20.7228344,48.253147 C26.2105331,52.59213 28,58 28,58 Z" id="Path" fill="#E6A540"></path>
                <polygon id="Path" points="0 0 114 0 114 114 0 114"></polygon>
            </g>
        </g>
    </g>
</svg>