<?xml version="1.0" encoding="UTF-8"?>
<svg width="285px" height="289px" viewBox="0 0 285 289" version="1.1" xmlns="http://www.w3.org/2000/svg" xmlns:xlink="http://www.w3.org/1999/xlink">
    <!-- Generator: Sketch 43.2 (39069) - http://www.bohemiancoding.com/sketch -->
    <title>noun_Home_2122985</title>
    <desc>Created with Sketch.</desc>
    <defs></defs>
    <g id="Page-1" stroke="none" stroke-width="1" fill="none" fill-rule="evenodd">
        <g id="noun_Home_2122985" fill="#000000">
            <path d="M248,171 L248,269 C248,280 239,289 228,289 L186,289 C176,289 169,282 169,272 L169,213 C169,212 167,210 166,210 L119,210 C117,210 115,212 115,213 L115,272 C115,282 108,289 99,289 L56,289 C45,289 36,280 36,269 L36,171 L14,171 C2,171 -4,157 4,148 L130,6 C136,-1 148,-1 154,6 L281,148 C289,157 282,171 270,171 L248,171 Z" id="Shape"></path>
        </g>
    </g>
</svg>