<?xml version="1.0" encoding="UTF-8"?>
<svg width="23px" height="12px" viewBox="0 0 23 12" version="1.1" xmlns="http://www.w3.org/2000/svg" xmlns:xlink="http://www.w3.org/1999/xlink">
    <!-- Generator: Sketch 53.2 (72643) - https://sketchapp.com -->
    <title>icons/arrow_down--color--black</title>
    <desc>Created with Sketch.</desc>
    <g id="Checkout" stroke="none" stroke-width="1" fill="none" fill-rule="evenodd">
        <g transform="translate(-721.000000, -178.000000)" fill="#000000" fill-rule="nonzero" id="icons/arrow_down--color--black">
            <g transform="translate(721.000000, 178.000000)">
                <path d="M11.4546687,11.2172428 L0.475331585,0.0835863367 C0.363745852,-0.0278621122 0.195275033,-0.0278621122 0.0836892997,0.0835863367 C-0.0278964332,0.195034786 -0.0278964332,0.363298336 0.0836892997,0.474746785 L11.4545455,12 L22.8254016,0.531808033 C22.9369873,0.420359584 22.9369873,0.252096034 22.8254016,0.140647585 C22.7138159,-0.0276159657 22.5453451,-0.0276159657 22.4337593,0.0838324833 L11.4546687,11.2172428 Z" id="Shape"></path>
            </g>
        </g>
    </g>
</svg>